<?xml version="1.0" encoding="utf-8"?>
<!-- Generator: Adobe Illustrator 24.0.2, SVG Export Plug-In . SVG Version: 6.00 Build 0)  -->
<svg version="1.1" id="Capa_1" xmlns="http://www.w3.org/2000/svg" xmlns:xlink="http://www.w3.org/1999/xlink" x="0px" y="0px"
	 viewBox="0 0 12.6 18.3" style="enable-background:new 0 0 12.6 18.3;" xml:space="preserve">

<g>
	<path class="st0" d="M6.8,2.7l0,1.7l-2,0.1l0-1.8l-1.5,0l0-1.5l1.5,0l0,1.5L6.8,2.7z M4.8,6.1l0-1.5l-1.5,0l0,1.5L4.8,6.1z
		 M12.6,7.7l-0.3,0.2c-1,1.1-2.2,1.4-3,1.4C7.6,9.3,6.7,8.1,6.6,8C5.9,7.3,5.1,7,4.3,7C2.8,7,1.6,8.2,1.6,8.2L1.3,8.5l-0.1,9.9l-1,0
		L0.3,0.8C0.1,0.8,0,0.6,0,0.4C0,0.2,0.2,0,0.4,0l0.8,0c0.2,0,0.4,0.2,0.4,0.4c0,0.2-0.1,0.3-0.3,0.4l0,0.5l0,0C2.5,0.4,3.6,0,4.5,0
		C6.3,0,7,1.4,7,1.5c0.6,1.2,1.4,1.4,2,1.4c0.2,0,0.4,0,0.4,0c1.5-0.2,2.5-1,2.9-1.2c0.4-0.2,0.3,0.6,0.3,0.6L12.6,7.7z M11.6,2.5
		l0,0.4l0.6-0.1l0-0.8C12.1,2.1,11.9,2.3,11.6,2.5z M1.9,7.5l-0.3,0l0,0.2C1.7,7.6,1.8,7.5,1.9,7.5z M6.8,7.7l0-0.3L6.5,7.4
		C6.6,7.5,6.7,7.6,6.8,7.7z M8.3,7.6l0-1.3l1.8-0.1l0-1.5L8.3,4.7l0-1.6C8.2,3.1,8,3,7.8,2.9l-1-0.1l0-1c0,0-0.1-0.1-0.1-0.1
		c0,0-0.1-0.1-0.2-0.3l-1.7,0l0-0.9c-0.1,0-0.2,0-0.3,0c-0.4,0-0.8,0.1-1.2,0.2l0,0.7l-1.3,0C1.8,1.4,1.7,1.4,1.6,1.5l0,1.3l1.6,0
		l0,1.8l-1.6,0l0,1.5l1.6,0l0,0.7c0.3-0.1,0.7-0.2,1.1-0.2c0.2,0,0.3,0,0.5,0l0-0.5l2-0.1l0-1.6l1.5,0.3l0,1.5L6.8,6l0,1.3L8.3,7.6z
		 M12.3,7.3L12.3,7.3l-0.7,0.1l0-1.3L12.3,6l0-1.6l-0.7,0.2l0-1.6l-0.9,0C10.5,3,10.3,3,10.1,3.1l0,1.5l1.5-0.1l0,1.5l-1.5,0.1
		l0,1.3L8.3,7.7l0,1.1C8.6,8.9,8.9,9,9.3,9c0.2,0,0.5,0,0.7-0.1l0-1.4l1.5-0.1l0,0.8L12.3,7.3z"/>
</g>
</svg>
